…
## Who is the most frequent client?

``` r
# Who is the most public frequent client?

clients <- STL_2018_2022 %>%
  group_by(Customer)%>%
  filter (Sector == "County")%>%
  summarise (total_samples=n())%>%
  arrange (desc(total_samples))
clients
```

    ## # A tibble: 61 × 2
    ##    Customer                  total_samples
    ##    <chr>                             <int>
    ##  1 Jeans County Extension             4843
    ##  2 Sunny County Extension             2976
    ##  3 Front Extension District           2624
    ##  4 Surco County Extension             2593
    ##  5 Wood Extension District            2420
    ##  6 Mar Extension District             1881
    ##  7 Dough County Extension             1501
    ##  8 South Extension District           1484
    ##  9 Meadow Extension District          1299
    ## 10 Cheers County Extension             842
    ## # ℹ 51 more rows

``` r
# Who is overall most frequent client?
all_clients <- STL_2018_2022 %>%
  group_by(Customer)%>%
  summarise (total_samples=n())%>%
  arrange (desc(total_samples))
all_clients
```

    ## # A tibble: 1,158 × 2
    ##    Customer                 total_samples
    ##    <chr>                            <int>
    ##  1 Harvard                          11753
    ##  2 Jeans County Extension            4843
    ##  3 H Farms                           4711
    ##  4 C                                 4176
    ##  5 R                                 3243
    ##  6 Sunny County Extension            2976
    ##  7 Front Extension District          2624
    ##  8 Surco County Extension            2593
    ##  9 Wood Extension District           2420
    ## 10 A                                 2101
    ## # ℹ 1,148 more rows
